final mul/mul/mul/mul.vcd
$comment
Copyright (C) 1991-2009 Altera Corporation
Your use of Altera Corporation's design tools, logic functions 
and other software and tools, and its AMPP partner logic 
functions, and any output files from any of the foregoing 
(including device programming or simulation files), and any 
associated documentation or information are expressly subject 
to the terms and conditions of the Altera Program License 
Subscription Agreement, Altera MegaCore Function License 
Agreement, or other applicable license agreement, including, 
without limitation, that your use is for the sole purpose of 
programming logic devices manufactured by Altera and sold by 
Altera or its authorized distributors.  Please refer to the 
applicable agreement for further details.
$end

$date 
  07/02/2011 02:46:29 
$end
$version 
 QUARTUS_VCD_EXPORT 1.0 
$end
$timescale
  1 ps
$end
$scope module mul $end
$var reg 1 ! clk $end
$var reg 32 " in1[31:0] $end
$var reg 32 # input1[31:0] $end
$var reg 32 $ input2[31:0] $end
$var reg 32 % output[31:0] $end
$var reg 1 & start $end
$upscope $end
$enddefinitions $end
#0
$dumpvars
0!
b0 "
b10 #
b1 $
b0 %
1&
$end
#5000
1!
b10 "
#10000
0!
0&
#15000
1!
b100 "
b11111111111111111111111111111110 %
#20000
0!
#25000
1!
b1000 "
#30000
0!
#35000
1!
b10000 "
#40000
0!
#45000
1!
b100000 "
#50000
0!
#55000
1!
b1000000 "
#60000
0!
#65000
1!
b10000000 "
#70000
0!
#75000
1!
b100000000 "
#80000
0!
#85000
1!
b1000000000 "
#90000
0!
#95000
1!
b10000000000 "
#100000
0!
#105000
1!
b100000000000 "
#110000
0!
#115000
1!
b1000000000000 "
#120000
0!
#125000
1!
b10000000000000 "
#130000
0!
#135000
1!
b100000000000000 "
#140000
0!
#145000
1!
b1000000000000000 "
#150000
0!
#155000
1!
b10000000000000000 "
#160000
0!
#165000
1!
b100000000000000000 "
#170000
0!
#175000
1!
b1000000000000000000 "
#180000
0!
#185000
1!
b10000000000000000000 "
#190000
0!
#195000
1!
b100000000000000000000 "
#200000
0!
#205000
1!
b1000000000000000000000 "
#210000
0!
#215000
1!
b10000000000000000000000 "
#220000
0!
#225000
1!
b100000000000000000000000 "
#230000
0!
#235000
1!
b1000000000000000000000000 "
#240000
0!
#245000
1!
b10000000000000000000000000 "
#250000
0!
#255000
1!
b100000000000000000000000000 "
#260000
0!
#265000
1!
b1000000000000000000000000000 "
#270000
0!
#275000
1!
b10000000000000000000000000000 "
#280000
0!
#285000
1!
b100000000000000000000000000000 "
#290000
0!
#295000
1!
b1000000000000000000000000000000 "
#300000
0!
#305000
1!
b10000000000000000000000000000000 "
#310000
0!
#315000
1!
b0 "
